consumerId,Cname_first,Cname_last,Cadd_1,Cadd_2,Cadd_3,Ccity,Cstate,Cpin,Cphone,Cmail,Cpswd
vikas123,Vikas,Mehta,C-19,ArdeeCity,Sec-52,Gurgaon,Haryana,122001,9877887789,vikas123@gmail.com,test1234
manish123,Manish,Bhai,C-48,ArdeeCity,Sec-52,Gurgaon,Haryana,122001,7787869988,manish123@gmail.com,test1234
