{
  "type": "service_account",
  "project_id": "langaugetest-e9160",
  "private_key_id": "62bed4bbaac091ebdbdc239bd99267bdc309a5e2",
  "private_key": "-----BEGIN PRIVATE KEY-----\nMIIEvQIBADANBgkqhkiG9w0BAQEFAASCBKcwggSjAgEAAoIBAQCLnGUV6ugncy3S\nsJvuoDnteqlWTyWIPrCYdxmE4EjeijwztECczmTLoDLp4yK81ulkvLTfLQ+ddXVS\nRbJLjZ2cnXkPy9L65C/63jKnnPBp0Teqw5Z4DiRBkxYFVvzOmTSly/GebXVTaYPY\nVM3kn6IzKkqX/Lzqnm5c24CPviQqHbWSvdVms9GFHk8hB8Zfvz89nXV6baMuoY/C\ntX69Rq81Wvp8VaT35ANiGmoyG+7rrUCOJkbb3OjSoakFXTL/d/o2+0/r0JrOMMMw\nhOMvh3gUqMBedunkQ7Gr7xlEGguQ4B426LAJWEz6eeq1D/z4NN4SWD27k2Pr/6oI\ncNzasnaHAgMBAAECggEAG/nEZc5zI8iYQ5JhRMF1qik8uo9UkYciYwLmqbI51+Iy\naxfxJJrVJtqcqTJ7GQUlsqp/wgLpEJ/jWQ+fSTWBAkup4SjyR5UnKimRU/YGVOX4\nNi9IPRl0WXGMZZiHQyz/GEQUUC9V5deMdHKV6Xy1h3Qvi2I5RvhlXBUeH2+2Fnwe\nyziNjBtLglCOj3ugo18stVKO6BaQWx6wXYn4zRKXFp+r5PvI+gnigPEpLmtoExcX\nh5v5G+fj3sAttGPd9qn6S2Rb+9dSMPw0IOAMpmOuOAXllVq3SoBGzucx6+sGv1AY\nMoZ0Zw/bbwZTjt3C2OSruRfpgyRfAjWBFJrmTZ6goQKBgQC/XKHIrKmfyo6nyPco\nQBMvfPlCj1BgqE7Hg4X7xA4kw9FUjmhhKDFSSALoJxJ2LG6Zolly24PQ+Vpx0nm9\nQ9LL0VHlStnDUV9VZe//PTL+cwSCR2xbYKMF/qs3a2KIgJwqYKHr5cq4D2y30ClK\nFzR8Kn3utiBbRE5B2FXeRf8DZwKBgQC6xMbRgIHpfjUlsO7DvxW5o7Up49gAB0NX\n8wl0FFusxwCeDQt9kwlcEHpvisbpKrW3fJvCKEVetw5iAWSPK+t+3A2lOQIvuDAd\n7yXupljea1IBsaEr3MpGEpLOOVkF7Wd4PEEdSupVG6xfU3t1zWj5JEzDb6cjJ7KX\nJ9msUUEf4QKBgCv6yBvswtc8oGijYVpYz4/8cvT/JwPv6psj+SkRuAZvEq8SQ58A\ns8UrU6+zOyT5tTmN/GzPUo42oLjEHMKI0euR4faGq2GeVAC2et/4Wr3sBT9D1v1x\nSkZYb1U/Utf4Zuu+ZbhniZ2fvebI6pRinOdkhKjWJr2TB0FOzP1WrPNFAoGBAIs7\nFlwnyLEf/M7UT6ptUOzLNcq8p9GdmH6AF5QJeS4cTEGGyAIdEuUnA58TfaVkyYK3\nygW7r7skC/zTvPteanhv41xAW3jnfjdSiJyYNbfZmZDZsqTYO5JxVi+WYN8iU/g2\nMvR7XKWFs8J8oZT4REE25mLrYVW7yk8Uzhi/miUBAoGAD3F8e6DnRqSzazqk9hf6\nyxXIyFtq8Umz1vJax8L6kU9+IRSaPSzIkulTSGs/IFkNiKYBvsi+siMx1JPnRLBT\nb5RKOiSdkdFd6mH/M50mTX9VigNib/T+CfUY2IHv7ca9zI99DsnXMljTaGOHdzof\nj6xnRXN97S7b0qAKgi8h41o=\n-----END PRIVATE KEY-----\n",
  "client_email": "dialogflow-vbxffa@langaugetest-e9160.iam.gserviceaccount.com",
  "client_id": "104281466451814783150",
  "auth_uri": "https://accounts.google.com/o/oauth2/auth",
  "token_uri": "https://accounts.google.com/o/oauth2/token",
  "auth_provider_x509_cert_url": "https://www.googleapis.com/oauth2/v1/certs",
  "client_x509_cert_url": "https://www.googleapis.com/robot/v1/metadata/x509/dialogflow-vbxffa%40langaugetest-e9160.iam.gserviceaccount.com"
}
