var Favourite = require('../models/FavouriteSchema.js');
// Create and Save 
exports.create = (req, res) => {
	console.log("FavouriteMap.controller create");
    // Validate request
    if(!req.body.userId) {
        return res.status(400).send({
            message: "FavouriteMap create -userId can not be empty"
        });
    }
	
	else if(!req.body.smanId) {
        return res.status(400).send({
            message: "FavouriteMap create -smanId can not be empty"
        });
    }
	
	else
	{
		console.log("Checking if Favourite mapping already exists ");
		Favourite.find(
			{
				$and:[{userId:req.body.userId},{smanId:req.body.smanId}]
			}
			, 
			function (err, result) 
			{
				if (err) throw err;
				console.log(result);
				if(result.length !== 0) {
					console.log("Favourite Map already exists" + result);
					return res.status(404).send({
						message: "FavouriteMap Already Exists " 
					});
				}		
				else
				{
					console.log("Map doesn't exists - creating new");
					//If everything ok, create a new record::
					console.log(result);
					//Create a serviceman
					
					var favourite = new Favourite();
					favourite.userId = req.body.userId;
					favourite.smanId = req.body.smanId;
					
					favourite.save(function(err, result){
						if (err)
						{
							return res.send(err);
						}
						console.log("favouriteMap create success" + result);
						res.send({
								message: "favourite created succcess" ,
								userId: result.userId,
								smanId: result.smanId
						});
						//message:'user created';
					}).
					catch(err => {
						if(err.kind === 'ObjectId') {
							return res.status(404).send({
								message: "Error creating favouriteMap " + req.body.userId + "map " + req.body.smanId
							});                
						}
						return res.status(500).send({
							message: "Error creating favouriteMap " + req.body.userId + "map " + req.body.smanId
						});
					});
				}
			}).catch(err => {
				if(err.kind === 'ObjectId') {
					return res.status(404).send({
						message: "favouriteMap could not be created"
					});                
				}
				return res.status(500).send({
					message: "Error favouriteMap could not be created"
				});
			});
	}
};

// validate
exports.validate = (req, res) => {
  console.log("validate otp" + req);
    Otp.find(
		{
			$and: [	{phone: req.params.phone},{otp: req.params.otp}]
		}
		,
		{ _id: 1, phone: 1 }
		, 
		function (err, result) 
		{
			if (err) throw err;
				
			console.log(result);		
			if(result.length===0) {
				return res.status(404).send({
					message: "Please check OTP details for " + req.params.phone
				});
			}
			else{
				res.send({
					message:"Otp validate succuess",
					result
				});	
			}
        }
	)
	.catch(err => {
        if(err.kind === 'ObjectId') {
            return res.status(404).send({
                message: "Otp not found with phone " + req.params.phone
            });                
        }
        return res.status(500).send({
            message: "Error retrieving Otp with phone " + req.params.phone
        });
    });
};


var crypto = require('crypto');

function randomValueHex (len) {
    return crypto.randomBytes(Math.ceil(len/2))
        .toString('hex') // convert to hexadecimal format
        .slice(0,len);   // return required number of characters
}

//var value1 = randomValueHex(12) // value 'd5be8583137b'
//var value2 = randomValueHex(2)  // value 'd9'
