var Consumer = require('../models/UserSchema.js');
// Create and Save 
exports.create = (req, res) => {
	console.log("user.controller create");
    // Validate request
    if(!req.body.phone) {
        return res.status(400).send({
            message: "user create -phone can not be empty"
        });
    }
	else if(!req.body.otp) {
        return res.status(400).send({
            message: "user create -otp can not be empty"
        });
    }	
	else
	{
		console.log("Checking if user already exists " + req.params);
		Consumer.find(
			{
				$or:[{userName:req.body.userName},{phone:req.body.phone}]
			}
			, 
			function (err, result) 
			{
				if (err) throw err;
				console.log(result);
				if(result.length !== 0) {
					console.log("user already exists" + consumer);
					return res.status(404).send({
						message: "User Already Exists - Choose new credentials or click forget Password" 
					});
				}
				else
				{
					console.log("user doesn't exists - creating new");
					//If everything ok, create a new record::
					console.log(req.body.userName);
					//Create a serviceman
					
					var consumer = new Consumer();
					consumer.userName = req.body.userName;
					consumer.password = req.body.password;
					consumer.phone = req.body.phone;
					consumer.email = '';
					consumer.state = '';
					consumer.city =  '';
					consumer.location = '';
					consumer.pin = '';
					consumer.firstName = '';
					consumer.lastName = '';
					consumer.photoUrl = '';
						
					consumer.save(function(err, result){
						if (err)
						{
							return res.send(err);
						}
						console.log("user create success" + result.phone);
						//res.send("user created");
						res.send({
								message: "user created succcess" ,
								userName: result.userName,
								_id: result._id
						});
						//message:'user created';
					}).
					catch(err => {
						if(err.kind === 'ObjectId') {
							return res.status(404).send({
								message: "Error creating user " + req.params.userName
							});                
						}
						return res.status(500).send({
							message: "Error creating user " + req.params.userName
						});
					});
				}
			}).catch(err => {
				if(err.kind === 'ObjectId') {
					return res.status(404).send({
						message: "Consumer could not be created"
					});                
				}
				return res.status(500).send({
					message: "Error Consumer could not be created"
				});
			});
	}
};