//const Jobber = require('../models/JobberSchema.js');
var Sman = require('../models/ServiceManSchema.js');

// Create and Save 
exports.createService = (req, res) => {
	  console.log("sman.controller createService");
	 // message: "createService success " ;//+ req.body.serviceName;
	  //res.send(message);		
};


// Create and Save 
exports.create = (req, res) => {
	  console.log("sman.controller create");
    // Validate request
    if(!req.body.phone) {
        return res.status(400).send({
            message: "sMan create -phone can not be empty"
        });
    }
	else if(!req.body.userName) {
        return res.status(400).send({
            message: "sMan create -userName can not be empty"
        });
    }
	else if(!req.body.password) {
        return res.status(400).send({
            message: "sMan create -password can not be empty"
        });
    }
	else if(!req.body.serviceName) {
        return res.status(400).send({
            message: "sMan create- serviceName can not be empty"
        });
    }
	
	else
	{
		console.log("Checking if user already exists " + req.params);
		//Find that userName is not taken & phone is not already taken
		//$and: [	{userName: req.params.userName} ]
		Sman.find(
			{
				$or:[{userName:req.body.userName},{phone:req.body.phone}]
			}
			, 
			function (err, result) 
			{
				if (err) throw err;
				console.log(result);
				if(result.length !== 0) {
					console.log("user already exists" + sman);
					return res.status(404).send({
						message: "Serviceman Already Exists - Choose new credentials or click forget Password" 
					});
				}
				else
				{
					console.log("user doesn't exists - creating new");
					//If everything ok, create a new record::
					console.log(req.body.userName);
					//Create a serviceman
					
					var sman = new Sman();
					sman.userName = req.body.userName;
					sman.serviceName = req.body.serviceName;
					sman.password = req.body.password;
					sman.phone = req.body.phone;
					sman.email = '';
					sman.state = '';
					sman.city =  '';
					sman.location = '';
					sman.pin = '';
					sman.firstName = '';
					sman.lastName = '';
					sman.likeCount = 0;
					sman.photoUrl = '';
						
					sman.save(function(err, savedSMan){
						if (err)
						{
							return res.send(err);
						}
						console.log("serviceman create success" + savedSMan.phone);
						//res.send("user created");
						res.send({
								message: "user created succcess" ,
								userName: savedSMan.userName,
								_id: savedSMan._id
						});
						//message:'user created';
					}).
					catch(err => {
						if(err.kind === 'ObjectId') {
							return res.status(404).send({
								message: "Error creating user " + req.params.userName
							});                
						}
						return res.status(500).send({
							message: "Error creating user " + req.params.userName
						});
					});
				}
			}).catch(err => {
				if(err.kind === 'ObjectId') {
					return res.status(404).send({
						message: "Serviceman could not be created"
					});                
				}
				return res.status(500).send({
					message: "Error Serviceman could not be created"
				});
			});
	}
};

// login
exports.login = (req, res) => {
  console.log("login" + req);
    Sman.find(
		{
			$and: [	{phone: req.params.phone},{password: req.params.password}]
		}
		,
		{ _id: 1, userName: 1 }
		, 
		function (err, result) 
		{
			if (err) throw err;
				
			console.log(result);		
			if(result.length===0) {
				return res.status(404).send({
					message: "Please check login details for " + req.params.phone
				});
			}
			else{
				res.send({
					message:"login succuess",
					result
				});	
			}
        }
	)
	.catch(err => {
        if(err.kind === 'ObjectId') {
            return res.status(404).send({
                message: "Serviceman not found with phone " + req.params.phone
            });                
        }
        return res.status(500).send({
            message: "Error retrieving serviceman with phone " + req.params.phone
        });
    });
};

exports.forgetByName = (req, res) => {
    Sman.find(
		{
			$and: [	{userName: req.params.userName} ]
		}
		,
		{ _id: 1, userName: 1 }
	)
    .then(sman => {
		console.log(sman);
        if(sman.length === 0) {
            return res.status(404).send({
                message: "Serviceman not found- " + req.params.userName
            });            
        }
		else
		{
			res.send({
					message:"OTP sent",
					sman
				});	
			/*
			return res.status(200).send({
					message: sman
				});
			*/
		}
    }).catch(err => {
        if(err.kind === 'ObjectId') {
            return res.status(404).send({
                message: "Serviceman not found with phone " + req.params.phone
            });                
        }
        return res.status(500).send({
            message: "Error retrieving serviceman with phone " + req.params.phones
        });
    });
};

exports.forgetByPhone = (req, res) => {
 Sman.find(
		{
			$and: [	{phone: req.params.phone} ]
		}
		,
		{ _id: 1, userName: 1 }
	)
    .then(sman => {
        if(sman.length === 0) {
            return res.status(404).send({
                message: "Serviceman not found with phone " + req.params.phone
            });            
        }
		else
		{
				return res.send({
					message:"OTP sent",
					sman
				});	
				/*
				return res.status(200).send({
					message: sman
				}); */
		}
    }).catch(err => {
        if(err.kind === 'ObjectId') {
            return res.status(404).send({
                message: "Serviceman not found with phone " + req.params.phone
            });                
        }
        return res.status(500).send({
            message: "Error retrieving serviceman with phone " + req.params.phone
        });
    });
};

exports.resetPassword = (req, res) => {
	console.log("resetPassword");
	Sman.find(
		{
			$and: [	{phone: req.params.phone}, {password:req.body.oldPassword} ]
		}
		,
		{ _id: 1, userName: 1 }
	)
    .then(sman => {
        if(sman.length === 0) {
            return res.status(404).send({
                message: "Serviceman not found with phone or old password " + req.params.phone
            });            
        }
		else
		{
			// Find Sman and update it with the request body
			Sman.findOneAndUpdate(
				{ "phone": req.params.phone },
				{ "$set":
					{
						password: req.body.newPassword
					}
				},
				{
					"fields": {"password":0},
					"new": true
				}
				)
				.then(sman => {
					console.log("found sman ", sman);
					if(sman.length===0) {
						return res.status(404).send({
							message: "sman not found with phone " + req.params.phone
					});
				}
				//res.send(sman);
				return res.send({
							message:"Success",
							sman
						});	
			}).catch(err => {
				if(err.kind === 'ObjectId') {
					return res.status(404).send({
						message: "SMan not found with phone " + req.params.phone
					});                
				}
				return res.status(500).send({
					message: "Error updating sman with phone " + req.params.phone
				});
			});
				/*
				return res.send({
					message:"OTP sent",
					sman
				});
				*/
				/*
				return res.status(200).send({
					message: sman
				}); */
		}
    }).catch(err => {
        if(err.kind === 'ObjectId') {
            return res.status(404).send({
                message: "Serviceman not found with phone " + req.params.phone
            });                
        }
        return res.status(500).send({
            message: "Error retrieving serviceman with phone " + req.params.phone
        });
    });
};

exports.findByCity = (req, res) => {
 Sman.find(
		{
			$and: [	{city: req.params.city} ]
		}
		,
		{ password: 0 }
	)
    .then(smen => {
		console.log("findbyCity #" + smen);
		return res.send({
					message:"Success",
					smen
				});	
        //res.send(smen);
    }).catch(err => {
        res.status(500).send({
            message: err.message || "Some error occurred while retrieving smen."
        });
    });
};

exports.findByCityProf = (req, res) => {
	Sman.find(
		{
			$and: [	{city: req.params.city}, {serviceName: req.params.serviceName} ]
		}
		,
		{ password: 0 }
	)
    .then(smen => {
        //res.send(smen);
		return res.send({
					message:"Success",
					smen
				});	
    }).catch(err => {
        res.status(500).send({
            message: err.message || "Some error occurred while retrieving smen."
        });
    });
};

exports.findByCityProfLoc = (req, res) => {
	Sman.find(
		{
			$and: [	{city: req.params.city}, {serviceName: req.params.serviceName}, {location: req.params.location} ]
		}
		,
		{ password: 0 }
	)
    .then(smen => {
        //res.send(smen);
		return res.send({
					message:"Success",
					smen
				});	
    }).catch(err => {
        res.status(500).send({
            message: err.message || "Some error occurred while retrieving smen."
        });
    });
};

exports.findAllByCity = (req, res) => {
	Sman.find(
		{
			$and: [	{city: req.params.city} ]
		}
		,
		{ password: 0 }
	)
    .then(smen => {
        //res.send(smen);
		return res.send({
					message:"Success",
					smen
				});	
    }).catch(err => {
        res.status(500).send({
            message: err.message || "Some error occurred while retrieving smen."
        });
    });
};

exports.findAllByLocation = (req, res) => {
	Sman.find(
		{
			$and: [	{city: req.params.city}, {location: req.params.location} ]
		}
		,
		{ password: 0 }
	)
    .then(smen => {
        //res.send(smen);
		return res.send({
					message:"Success",
					smen
				});	
    }).catch(err => {
        res.status(500).send({
            message: err.message || "Some error occurred while retrieving smen."
        });
    });
};

exports.findAll = (req, res) => {
	Sman.find(
			{},
			{ password: 0 }
		)
    .then(smen => {
        //res.send(smen);
		return res.send({
					message:"Success",
					smen
				});	
    }).catch(err => {
        res.status(500).send({
            message: err.message || "Some error occurred while retrieving smen."
        });
    });
};

exports.updateProfile = (req, res) => {
	// Validate Request
    if(!req.body.city) {
		console.log("not found with city");
        return res.status(400).send({
            message: "SMan Profile city can not be empty"
        });
    }
    // Find Sman and update it with the request body
    Sman.findOneAndUpdate(
		{ "_id": req.params.sManId },
		{ "$set":
			{
				state: req.body.state,
				city: req.body.city,
				location: req.body.location,
				pin: req.body.pin,
				email: req.body.email,
				firstName: req.body.firstName,
				lastName: req.body.lastName
			}
		},
		{
			"fields": {"password":0},
			"new": true
		}
		)
		.then(sman => {
			console.log("found sman ", sman);
			if(sman.length===0) {
				return res.status(404).send({
					message: "sman not found with id " + req.params.sManId
			});
        }
        //res.send(sman);
		return res.send({
					message:"Success",
					sman
				});	
    }).catch(err => {
        if(err.kind === 'ObjectId') {
            return res.status(404).send({
                message: "SMan not found with id " + req.params.sManId
            });                
        }
        return res.status(500).send({
            message: "Error updating sman with id " + req.params.sManId
        });
    });
};

exports.updateLike = (req, res) => {
	
	// Validate Request
    if(!req.body.like) {
        return res.status(400).send({
            message: "SMan Profile like can not be empty"
        });
    }
	var flag=1;
	if (req.body.like==="true")
	{
		console.log("updateLike found true");
		Sman.findOneAndUpdate(
			{_id:req.params.sManId}, 
			{
				$inc: {	likeCount : 1}
			},
			{
				"fields": {"password":0},
				"new": true
			}
		)
		.then(sman => {
			console.log(sman);
			if(!sman) {
				return res.status(404).send({
					message: "sman not found " + sman
				});
			}
			//res.send(sman);
			return res.send({
					message:"Success",
					sman
				});	
		}).catch(err => {
			if(err.kind === 'ObjectId') {
				return res.status(404).send({
					message: "SMan not found with phone " + req.params.phone
				});                
			}
			return res.status(500).send({
				message: "Error updating sman with phone " + req.params.phone
			});
		});	
	}
	else
	{
		flag = -1;
		Sman.findOneAndUpdate(
			{_id:req.params.sManId}, 
			{
				$inc: {	likeCount : -1}
			},
			{
				"fields": {"password":0},
				"new": true
			}
		)
		.then(sman => {
			console.log(sman);
			if(!sman) {
				return res.status(404).send({
					message: "sman not found " + sman
				});
			}
			//res.send(sman);
			return res.send({
					message:"Success",
					sman
				});	
		}).catch(err => {
			if(err.kind === 'ObjectId') {
				return res.status(404).send({
					message: "SMan not found with phone " + req.params.phone
				});                
			}
			return res.status(500).send({
				message: "Error updating sman with phone " + req.params.phone
			});
		});	
	}	
};